Obtenir les informations sur les sites depuis l'API de coleo — get_sites • rcoleo
…
#>   Content-Type: application/json; charset=utf-8
#>   Size: 1.32 kB
#> 
#> 
#> attr(,"class")
#> [1] "getSuccess"
#> 
#> 
#> attr(,"class")
#> [1] "coleoGetResp"
head(get_sites())
#> [[1]]
#> [[1]][[1]]
#> $body
#> # A tibble: 28 x 19
#>       id cell_id off_station_code… site_code  type  opened_at notes created_at 
#>  * <int>   <int> <chr>             <chr>      <chr> <chr>     <lgl> <chr>      
#>  1     1     134 <NA>              135_104_H… mara… 2016-06-… NA    2018-08-28…
#>  2     2     134 46487218-2        135_104_F… fore… 2016-05-… NA    2018-08-28…
#>  3     3     198 <NA>              148_101_F… fore… 2016-05-… NA    2018-08-28…
#>  4     4     151 <NA>              137_111_H… tour… 2016-07-… NA    2018-08-28…
#>  5     5     198 <NA>              148_101_H… tour… 2016-06-… NA    2018-08-28…
#>  6     6     151 471827710948-1    137_111_F… fore… 2016-06-… NA    2018-08-28…
#>  7     7     165 46407102-1        141_108_F… fore… 2016-05-… NA    2018-08-28…
#>  8     8     165 <NA>              141_108_H… tour… 2016-07-… NA    2018-08-28…
#>  9     9     119 48137116-1        132_116_F… fore… 2016-06-… NA    2018-08-28…
#> 10    10     119 <NA>              132_116_H… tour… 2016-06-… NA    2018-08-28…
#> # ... with 18 more rows, and 11 more variables: updated_at <chr>,
#> #   campaigns <list>, geom.type <chr>, geom.coordinates <list>, cell.id <int>,
#> #   cell.name <chr>, cell.cell_code <chr>, cell.created_at <chr>,
#> #   cell.updated_at <chr>, cell.geom.type <chr>, cell.geom.coordinates <list>
…
